{
  "clientLegalName": "OneSports",
  "clientBrandName": "OneSports ERP",
  "clientCode": "onesports",
  "timezone": "Asia/Kolkata",
  "theme": {},
  "appEnabled": true,
  "smsProvider": "aws",
  "emailProvider": "aws",
  "apiServerEnabled": true,
  "frontendAppEnabled": true,
  "logo": {},
  "applicationURLWithoutProtocol": "sreenidhi1sports.com",
  "applicationURLWithProtocol": "https://sreenidhi1sports.com",
  "technicalIssueReporting": {
    "emailNotificationEnabled": true,
    "emailAddresses": [
      "anshuman@sreenidhi1sports.com"
    ]
  },
  "isForceSSLRequired": false,
  "allowExternalSystemIntegration": true
}
