{
  "name": "CronLog",
  "plural": "CronLogs",
  "base": "BaseMySQLModel",
  "indexes": {},
  "properties": {
    "cronJobName": {
      "type": "string",
      "required": true
    },
    "command": {
      "type": "string",
      "required": false
    },
    "cronStatus": {
      "type": "number",
      "optionLabelIdentifier": "CRONSTATUS",
      "default": 1,
      "required": true
    },
    "log": {
      "type": "object",
      "required": false
    },
    "startDate": {
      "type": "date",
      "required": true
    },
    "endDate": {
      "type": "date",
      "required": false
    }
  },
  "validations": [],
  "relations": {},
  "acls": [
    {
      "accessType": "EXECUTE",
      "principalType": "ROLE",
      "principalId": "SYSTEMADMIN",
      "permission": "ALLOW",
      "property": ["find", "findById", "findOne", "count"]
    },
    {
      "accessType": "EXECUTE",
      "principalType": "ROLE",
      "principalId": "ONEADMIN",
      "permission": "ALLOW",
      "property": ["find", "findById", "findOne", "count"]
    }
  ],
  "methods": {},
  "hidden": []
}
