{
  "name": "ErrorLog",
  "plural": "ErrorLogs",
  "base": "BaseMySQLModel",
  "indexes": {},
  "properties": {
    "errorCode": {
      "type": "string",
      "required": true
    },
    "errorMessage": {
      "type": "string",
      "required": true
    },
    "stackTrace": {
      "type": "object",
      "required": false
    },
    "remark": {
      "type": "string",
      "required": false
    },
    "isResolved": {
      "type": "boolean",
      "default": false
    }
  },
  "validations": [],
  "relations": {},
  "acls": [
    {
      "accessType": "EXECUTE",
      "principalType": "ROLE",
      "principalId": "SYSTEMADMIN",
      "permission": "ALLOW",
      "property": ["find", "findById", "findOne", "count"]
    },
    {
      "accessType": "EXECUTE",
      "principalType": "ROLE",
      "principalId": "ONEADMIN",
      "permission": "ALLOW",
      "property": ["find", "findById", "findOne", "count"]
    }
  ],
  "methods": {},
  "hidden": []
}
